{
  "project_info": {
    "project_number": "855545545998",
    "firebase_url": "https://fir-notification-3e54b.firebaseio.com",
    "project_id": "fir-notification-3e54b",
    "storage_bucket": "fir-notification-3e54b.appspot.com"
  },
  "client": [
    {
      "client_info": {
        "mobilesdk_app_id": "1:855545545998:android:ca15fa98556012cf27035f",
        "android_client_info": {
          "package_name": "com.firebasenotification"
        }
      },
      "oauth_client": [
        {
          "client_id": "855545545998-kgl4cj4vul6g5gi1f7a41toj72do20fm.apps.googleusercontent.com",
          "client_type": 1,
          "android_info": {
            "package_name": "com.firebasenotification",
            "certificate_hash": "77503cdf41910b16322912b8ad348fc4ecdcaf3b"
          }
        },
        {
          "client_id": "855545545998-go2h90v52o7m6pu52vk3mtulv72csifk.apps.googleusercontent.com",
          "client_type": 3
        }
      ],
      "api_key": [
        {
          "current_key": "AIzaSyBeHf0rkQqjLsvq91P0O4ePGmTGt9I4rEo"
        }
      ],
      "services": {
        "appinvite_service": {
          "other_platform_oauth_client": [
            {
              "client_id": "855545545998-go2h90v52o7m6pu52vk3mtulv72csifk.apps.googleusercontent.com",
              "client_type": 3
            }
          ]
        }
      }
    }
  ],
  "configuration_version": "1"
}